,source,text,message,sex,decent,moral,person
0,vk.com/rhymes?w=wall-28905875_19956415,"🌓 [club28905875|МАКС КОРЖ] — «ТЕПЛО»

#ПремьераТрека@rhymes: Макс выпускает свой новый сольный трек как всегда без предупреждений. Для Макса это уже второй трек на этой неделе, что удивляет его фанатов. А сам трек мелодичный и пропитан душевным мотивом.

«Отдай тепло, отдай им те","[id448314411|Сергей], очередное быдло, которое желает смерти тому, кто не слушает Коржа, либо просто его критикует",male,decent,moral,imperson
1,vk.com/rhymes?w=wall-28905875_19956415,"🌓 [club28905875|МАКС КОРЖ] — «ТЕПЛО»

#ПремьераТрека@rhymes: Макс выпускает свой новый сольный трек как всегда без предупреждений. Для Макса это уже второй трек на этой неделе, что удивляет его фанатов. А сам трек мелодичный и пропитан душевным мотивом.

«Отдай тепло, отдай им те","[id424784875|Ян], где ты наблюдаешь мое слабоумие?",male,decent,moral,person
2,vk.com/rhymes?w=wall-28905875_19956415,"🌓 [club28905875|МАКС КОРЖ] — «ТЕПЛО»

#ПремьераТрека@rhymes: Макс выпускает свой новый сольный трек как всегда без предупреждений. Для Макса это уже второй трек на этой неделе, что удивляет его фанатов. А сам трек мелодичный и пропитан душевным мотивом.

«Отдай тепло, отдай им те","[id448314411|Сергей], ты кто клоун?",female,decent,moral,person
3,vk.com/rhymes?w=wall-28905875_19956415,"🌓 [club28905875|МАКС КОРЖ] — «ТЕПЛО»

#ПремьераТрека@rhymes: Макс выпускает свой новый сольный трек как всегда без предупреждений. Для Макса это уже второй трек на этой неделе, что удивляет его фанатов. А сам трек мелодичный и пропитан душевным мотивом.

«Отдай тепло, отдай им те","[id92023445|Александр], долбоеб...",male,obscene,moral,person
4,vk.com/rhymes?w=wall-28905875_19974724,Минск сегодня 🤯,"[id258489859|Никита], когда леваки поймут ущербность выступлений против власти?))",male,decent,moral,imperson
5,vk.com/rhymes?w=wall-28905875_19974724,Минск сегодня 🤯,"[id498145117|Евгений], когда твоя мать сгниет смешной уебан",male,obscene,moral,person
6,vk.com/rhymes?w=wall-28905875_19974646,"😱 Внушительная колонна «передвижных стен» движется в направлении проспекта Победителей  

держитесь, родненькие ✊🏽","[id188393739|Rustam], хуевый из тебя тролль",male,obscene,moral,person
7,vk.com/rhymes?w=wall-28905875_19973914,"⚡️В Минске силовики начали использовать резиновые пули

ОХ*ЕТЬ!!!","[id609381121|Михаил], А ТЫ ИГРУ ПОЧИНИ СИРОТА",male,decent,moral,person
8,vk.com/rhymes?w=wall-28905875_19973808,"Люди в [club28905875|Минске] зажигают фонари своих телефонов, требуя перемен 🙏🏻",долбоебушка ты ебаная шлюха патриотка,male,obscene,immoral,person
9,vk.com/rhymes?w=wall-28905875_19973808,"Люди в [club28905875|Минске] зажигают фонари своих телефонов, требуя перемен 🙏🏻","[id435930066|Виктор], ясно,иди лесом,тупая быдлятина",male,decent,moral,person
10,vk.com/rhymes?w=wall-28905875_19973531,"😯 В [club28905875|Беларуси] происходят массовые стычки с полицией!

ОМОН пытается задерживать протестующих, но у них ничего не получается 👎🏻","[id218469830|Женя], выборы выборы кандидаты пидоры",male,decent,immoral,imperson
11,vk.com/rhymes?w=wall-28905875_19973285,"Владелец [club28905875|«Спартака»] не выдержал своих эмоций, после ничьи против [club28905875|«Сочи»] 😯","[id375800067|Alexander], опущенка, писю а рот взял и молчи",male,decent,immoral,person
12,vk.com/rhymes?w=wall-28905875_19973285,"Владелец [club28905875|«Спартака»] не выдержал своих эмоций, после ничьи против [club28905875|«Сочи»] 😯","бля,ты себя в зеркале видел?обезьяна ебаная.так еще и за питерскую хуйню топит",male,obscene,immoral,person
13,vk.com/rhymes?w=wall-28905875_19973285,"Владелец [club28905875|«Спартака»] не выдержал своих эмоций, после ничьи против [club28905875|«Сочи»] 😯",пиздуй в огород вместо пугала еблан,male,obscene,moral,person
14,vk.com/rhymes?w=wall-28905875_19973285,"Владелец [club28905875|«Спартака»] не выдержал своих эмоций, после ничьи против [club28905875|«Сочи»] 😯","[id439696218|Владислав], судья пидор подыгрывал Сочи они вели 2:0",male,decent,immoral,imperson
15,vk.com/rhymes?w=wall-28905875_19972028,"Лайк, если тебе уже звонили 😑","[id592271389|Даня],  6лин, ты дурªг",male,decent,moral,person
16,vk.com/rhymes?w=wall-28905875_19971306,"🚉 В [club28905875|Иваново] отреставрировали железнодорожный вокзал, теперь он выглядит так:

Выглядит как будущее 😍",пиздабол,male,obscene,immoral,imperson
17,vk.com/rhymes?w=wall-28905875_19970855,🤔,"[id577353397|Витя], о.. ладно я думал ты дурак",male,decent,moral,person
18,vk.com/rhymes?w=wall-28905875_19970629,"🇧🇾 Голосование [club28905875|в Республике Беларусь] завершилось.

Предварительные результаты: 

⛔️ Лукашенко 79,7% 
⛔️ Тихановская 6,8%","[id584255525|Алишер], что за малолетний пидор?",male,decent,immoral,imperson
19,vk.com/rhymes?w=wall-28905875_19970335,,"[id155433048|Екатерина], не тупее тебя,тупая пезда",male,obscene,moral,person
